\relax 
\providecommand\hyper@newdestlabel[2]{}
\providecommand\HyperFirstAtBeginDocument{\AtBeginDocument}
\HyperFirstAtBeginDocument{\ifx\hyper@anchor\@undefined
\global\let\oldcontentsline\contentsline
\gdef\contentsline#1#2#3#4{\oldcontentsline{#1}{#2}{#3}}
\global\let\oldnewlabel\newlabel
\gdef\newlabel#1#2{\newlabelxx{#1}#2}
\gdef\newlabelxx#1#2#3#4#5#6{\oldnewlabel{#1}{{#2}{#3}}}
\AtEndDocument{\ifx\hyper@anchor\@undefined
\let\contentsline\oldcontentsline
\let\newlabel\oldnewlabel
\fi}
\fi}
\global\let\hyper@last\relax 
\gdef\HyperFirstAtBeginDocument#1{#1}
\providecommand\HyField@AuxAddToFields[1]{}
\providecommand\HyField@AuxAddToCoFields[2]{}
\@writefile{toc}{\contentsline {section}{\numberline {1}Exp\IeC {\'e}riences professionnelles}{1}{section.1}}
\@writefile{toc}{\contentsline {subsection}{\numberline {1.1}Projets personnels}{2}{subsection.1.1}}
\@writefile{toc}{\contentsline {section}{\numberline {2}Comp\IeC {\'e}tences}{2}{section.2}}
\@writefile{toc}{\contentsline {subsection}{\numberline {2.1}Informatique}{2}{subsection.2.1}}
\@writefile{toc}{\contentsline {subsection}{\numberline {2.2}Langues}{2}{subsection.2.2}}
\@writefile{toc}{\contentsline {section}{\numberline {3}Formation}{2}{section.3}}
\@writefile{toc}{\contentsline {section}{\numberline {4}Loisirs}{2}{section.4}}
